…
After you have initialized the test, you need to simulate the test on the null distribution, which we will save as null.

null_dist <- yrbss %>%
  specify(weight ~ physical_3plus) %>% 
  hypothesize(null = "independence") %>% 
  generate(reps = 1000, type = "permute") %>% 
  calculate(stat = "diff in means", order = c("Yes", "No"))
null_dist
## Response: weight (numeric)
## Explanatory: physical_3plus (factor)
## Null Hypothesis: independence
## # A tibble: 1,000 x 2
##    replicate    stat
##        <int>   <dbl>
##  1         1  0.413 
##  2         2 -0.607 
##  3         3 -0.588 
##  4         4 -0.377 
##  5         5  0.518 
##  6         6 -0.435 
##  7         7 -0.222 
##  8         8 -0.278 
##  9         9  0.0912
## 10        10 -0.433 
## # ... with 990 more rows
…
